Keyboard Visualization
…
  return(rgb(pct, max(0, pct - 0.5), (1 - pct) / 2))
}
color_scale_rgb = function(x) {
  pct = x / 1560
  return(c(pct, max(0, pct - 0.5), (1 - pct) / 2))
}
alpha = function(x) {
  pct = x / 1560
  #return(0.2 + pct * 0.3)
  return(0.7 - pct * 0.3)
}
colors = first_counts %>% mutate(color = sapply(n, color_scale)) %>% mutate(first_letter = sapply(first_letter, toupper))
colors

# A tibble: 26 × 3
   first_letter     n color  
   <chr>        <int> <chr>  
 1 A              736 #780043
 2 B              908 #941535
 3 C              920 #961734
 4 D              681 #6F0048
 5 E              303 #320067
 6 F              595 #61004F
 7 G              637 #68004B
 8 H              488 #500058
 9 I              165 #1B0072
10 J              202 #21006F
# … with 16 more rows
…
ℹ Use `spec()` to retrieve the full column specification for this data.
ℹ Specify the column types or set `show_col_types = FALSE` to quiet this message.

wordle_counts_ordered <- keys %>% 
  select(key) %>%
  left_join(colors, by = c("key" = "first_letter"))

wordle_counts_ordered$n[is.na(wordle_counts_ordered$n)] = 0
wordle_counts_ordered = wordle_counts_ordered %>% mutate(color = sapply(n, color_scale),
                                                         brightness = sapply(n, alpha))
wordle_counts_ordered

# A tibble: 61 × 4
   key            n color   brightness
   <chr>      <dbl> <chr>        <dbl>
 1 Ctrl Left      0 #000080      0.7  
 2 Win Left       0 #000080      0.7  
 3 Alt Left       0 #000080      0.7  
 4 Spacebar       0 #000080      0.7  
 5 Alt Right      0 #000080      0.7  
 6 Win Right      0 #000080      0.7  
 7 Menu           0 #000080      0.7  
 8 Ctrl Right     0 #000080      0.7  
 9 Shift Left     0 #000080      0.7  
10 Z            105 #110077      0.680
# … with 51 more rows
…
